{
	"mapwidth": "800",
	"mapheight": "1200",
	
	"levels": [
		
		
		
		{
		"id": "overall",
			"title": "แผนผังลุ่มน้ำสะแกกรัง",
			"map": "map3d/images/thailand/main.svg",
			"minimap": "map3d/images/thailand/main.svg",
			"show": "true",
			"locations": [
				
				
				{
					
					"id": "m1",
					
					"title": "<strong> Ct.5A <br/> <span style='color:green;'> สถานะ : ปกติ </span>  <br/> (<span style='color:#9800e0;'> 106.86</span> / <span style='color:#0d7d02;'> 340 </span> ) </strong>",
					"showsildbar": "<strong>Ct.5A อ.ขาณุวรลักษบุรี จ.กำแพงเพชร </strong>",
					"showhover": "<strong>Ct.5A อ.ขาณุวรลักษบุรี จ.กำแพงเพชร </strong> <br/><span> ข้อมูล ณ วันที่ 8 มีนาคม 2560 <br/>สถานะ : ปกติ <br/> ระดับตลิ่ง : 106.86 ม.(รทก) <br/> ความจุลำน้ำ : 340 ลบ.ม./วิ </span> ",
					"about": "ข้อมูล ณ วันที่ 8 มีนาคม 2560   ",
					"description": "สถานะ : ปกติ <br/> ระดับตลิ่ง : 106.86 ม.(รทก) <br/> ความจุลำน้ำ : 340 ลบ.ม./วิ ",
					
					"category": "dep",
					"pin":"",
					"fill": "#046726",
					
					"y": "0.1731",
					"x": "0.5570"
					
					
					
					
				}
				,{
					
					"id": "m2",
					
					"title": "<strong> Ct.4 <br/> <span style='color:green;'> สถานะ : ปกติ </span>  <br/> (<span style='color:#9800e0;'> 71</span> / <span style='color:#0d7d02;'> 168 </span> ) </strong>",
					"showsildbar": "<strong>Ct.4 อ.ลาดยาว จ.นครสวรรค์ </strong>",
					"showhover": "<strong>Ct.4 อ.ลาดยาว จ.นครสวรรค์  </strong> <br/><span> ข้อมูล ณ วันที่ 8 มีนาคม 2560 <br/>สถานะ : ปกติ <br/> ระดับตลิ่ง : 71 ม.(รทก) <br/> ความจุลำน้ำ : 168 ลบ.ม./วิ </span> ",
					"about": "ข้อมูล ณ วันที่ 8 มีนาคม 2560   ",
					"description": "สถานะ : ปกติ <br/> ระดับตลิ่ง : 71 ม.(รทก) <br/> ความจุลำน้ำ : 168 ลบ.ม./วิ ",
					
					"category": "dep",
					"pin":"",
					"fill": "#046726",
					
					"y": "0.2990",
					"x": "0.5560"
					
					   
					
					
					   
				}
				,{
					
					"id": "m3",
					
					"title": "<strong> Ct.19 <br/> <span style='color:green;'> สถานะ : ปกติ </span>  <br/> (<span style='color:#9800e0;'>  24.35</span> / <span style='color:#0d7d02;'> 510 </span> ) </strong>",
					"showsildbar": "<strong>Ct.19 อ.เมือง จ.อุทัยธานี </strong>",
					"showhover": "<strong>Ct.19 อ.เมือง จ.อุทัยธานี  </strong> <br/><span> ข้อมูล ณ วันที่ 8 มีนาคม 2560 <br/>สถานะ : ปกติ <br/> ระดับตลิ่ง : 24.35 ม.(รทก) <br/> ความจุลำน้ำ : 510 ลบ.ม./วิ </span> ",
					"about": "ข้อมูล ณ วันที่ 8 มีนาคม 2560   ",
					"description": "สถานะ : ปกติ <br/> ระดับตลิ่ง :  24.35 ม.(รทก) <br/> ความจุลำน้ำ : 510 ลบ.ม./วิ ",
					
					"category": "dep",
					"pin":"",
					"fill": "#046726",
					
					"y": "0.5841",
					"x": "0.5570"
					
					   
					
					    
					
				}
				,{
					
					"id": "m4",
					
					"title": "<strong> Ct.7 <br/> <span style='color:green;'> สถานะ : ปกติ </span>  <br/> (<span style='color:#9800e0;'> 104.88</span> / <span style='color:#0d7d02;'> 170 </span> ) </strong>",
					"showsildbar": "<strong>Ct.7 คลองโพธิ์ อ.แม่เปิน จ.นครสวรรค์ </strong>",
					"showhover": "<strong>Ct.7 คลองโพธิ์ อ.แม่เปิน จ.นครสวรรค์   </strong> <br/><span> ข้อมูล ณ วันที่ 8 มีนาคม 2560 <br/>สถานะ : ปกติ <br/> ระดับตลิ่ง : 104.88 ม.(รทก) <br/> ความจุลำน้ำ : 170 ลบ.ม./วิ </span> ",
					"about": "ข้อมูล ณ วันที่ 8 มีนาคม 2560   ",
					"description": "สถานะ : ปกติ <br/> ระดับตลิ่ง : 104.88 ม.(รทก) <br/> ความจุลำน้ำ : 170 ลบ.ม./วิ ",
					
					"category": "dep",
					"pin":"",
					"fill": "#046726",
					"x": "0.3100",
					"y": "0.3610"
					
					
				}
				,{
					
					"id": "m5",
					
					"title": "<strong> Ct.9 <br/> <span style='color:green;'> สถานะ : ปกติ </span>  <br/> (<span style='color:#9800e0;'> 127.47</span> / <span style='color:#0d7d02;'> 280 </span> ) </strong>",
					"showsildbar": "<strong>Ct.9 ห้วยทับเสลา อ.ลานสัก จ.อุทัยธานี </strong>",
					"showhover": "<strong>Ct.9 ห้วยทับเสลา อ.ลานสัก จ.อุทัยธานี  </strong> <br/><span> ข้อมูล ณ วันที่ 8 มีนาคม 2560 <br/>สถานะ : ปกติ <br/> ระดับตลิ่ง : 127.47 ม.(รทก) <br/> ความจุลำน้ำ : 280 ลบ.ม./วิ </span> ",
					"about": "ข้อมูล ณ วันที่ 8 มีนาคม 2560   ",
					"description": "สถานะ : ปกติ <br/> ระดับตลิ่ง : 127.47 ม.(รทก) <br/> ความจุลำน้ำ : 280 ลบ.ม./วิ ",
					
					"category": "dep",
					"pin":"",
					"fill": "#046726",
					
					"y": "0.6040",
					"x": "0.2900"
					
					
					
					   
				}
				,{
					
					"id": "m6",
					
					"title": "<strong> Ct.2A <br/> <span style='color:green;'> สถานะ : ปกติ </span>  <br/> (<span style='color:#9800e0;'>  21.34</span> / <span style='color:#0d7d02;'> 616 </span> ) </strong>",
					"showsildbar": "<strong>Ct.2A อ.เมือง จ.อุทัยธานี </strong>",
					"showhover": "<strong>Ct.2A อ.เมือง จ.อุทัยธานี  </strong> <br/><span> ข้อมูล ณ วันที่ 8 มีนาคม 2560 <br/>สถานะ : ปกติ <br/> ระดับตลิ่ง : 21.34 ม.(รทก) <br/> ความจุลำน้ำ : 616 ลบ.ม./วิ </span> ",
					"about": "ข้อมูล ณ วันที่ 8 มีนาคม 2560   ",
					"description": "สถานะ : ปกติ <br/> ระดับตลิ่ง :  21.34 ม.(รทก) <br/> ความจุลำน้ำ : 616 ลบ.ม./วิ ",
					
					"category": "dep",
					"pin":"",
					"fill": "#046726",
					
					"y": "0.7110",
					"x": "0.5570"
					
					
					
				
					
	
				}
				
				
				
				
				
			
			]
		}
		
	]
}